Final Project Combined
…
#load in map data and merge with player data
all_countries<-map_data("world")
names(all_countries)[5] <- "ioc"
#change country names in map data to abbreviation
all_countries[5] <- countrycode(all_countries[,5], 'country.name','iso3c')

## Warning in countrycode_convert(sourcevar = sourcevar, origin = origin, destination = dest, : Some values were not matched unambiguously: Ascension Island, Azores, Barbuda, Bonaire, Canary Islands, Chagos Archipelago, Grenadines, Heard Island, Kosovo, Madeira Islands, Micronesia, Saba, Saint Martin, Siachen Glacier, Sint Eustatius, Virgin Islands

#merge matches and map data
matches_country_map <- full_join(winners_losers, all_countries, by = "ioc")
matches_country_map

## # A tibble: 99,356 x 7
##    ioc   count  long   lat group order subregion          
##    <chr> <int> <dbl> <dbl> <dbl> <int> <chr>              
##  1 ARG      10 -64.5 -54.7    17  1148 Isla de los Estados
##  2 ARG      10 -64.4 -54.7    17  1149 Isla de los Estados
##  3 ARG      10 -64.2 -54.7    17  1150 Isla de los Estados
##  4 ARG      10 -64.1 -54.7    17  1151 Isla de los Estados
##  5 ARG      10 -64.1 -54.7    17  1152 Isla de los Estados
##  6 ARG      10 -64.0 -54.7    17  1153 Isla de los Estados
##  7 ARG      10 -63.9 -54.7    17  1154 Isla de los Estados
##  8 ARG      10 -63.8 -54.7    17  1155 Isla de los Estados
##  9 ARG      10 -63.8 -54.8    17  1156 Isla de los Estados
## 10 ARG      10 -64.0 -54.8    17  1157 Isla de los Estados
## #  with 99,346 more rows
…
